{
    "env": {
        "Port": 9498,
        "NODE_ENV": "development",
        "MONGO_USER": "Techplant",
        "MONGO_PASSWORD": "tech123",
        "MONGO_DATABASE": "Futuretech",
        "KEY": "dhisodknknaiisoamsknqasnihdoa",
        "MSG_91_KEY": "167861AKmzePe5805de7db2b"
    }
}